{
  "extends": [
    "config:base",
    ":assignee(pomma89)"
  ],
  "ignorePresets": [
    ":ignoreModulesAndTests"
  ],
  "automerge": true,
  "gitLabAutomerge": true,
  "ignoreDeps": [
    "Microsoft.Extensions.DependencyInjection.Abstractions",
    "Microsoft.Extensions.Diagnostics.HealthChecks.Abstractions",
    "Microsoft.Extensions.Logging.Abstractions",
    "Microsoft.Extensions.Options"
  ],
  "packageRules": [
    {
      "packagePatterns": [
        "^Microsoft.AspNetCore"
      ],
      "groupName": "ASP.NET Core packages"
    },
    {
      "packagePatterns": [
        "^Microsoft.EntityFrameworkCore"
      ],
      "groupName": "Entity Framework Core packages"
    },
    {
      "packagePatterns": [
        "^PommaLabs.KVLite"
      ],
      "groupName": "KVLite packages"
    },
    {
      "packagePatterns": [
        "^SqlKata"
      ],
      "groupName": "SqlKata packages"
    },
    {
      "packagePatterns": [
        "^Verify"
      ],
      "groupName": "Verify packages"
    }
  ]
}